D:\Logistics workspace\erp\src\main\java\com\mylogistics\DAO\bank\BankMstrDAO.java
D:\Logistics workspace\erp\src\main\java\com\mylogistics\pdf\TrialReportPDFBuilder.java
D:\Logistics workspace\erp\src\main\java\com\mylogistics\controller\temp\BillTempCntlr.java
D:\Logistics workspace\erp\src\main\java\com\mylogistics\model\Remarks.java
D:\Logistics workspace\erp\src\main\java\com\mylogistics\DAO\MasterStnStkDao.java
D:\Logistics workspace\erp\src\main\java\com\mylogistics\constants\BranchOldCNTS.java
D:\Logistics workspace\erp\src\main\java\com\mylogistics\model\FaBProm.java
D:\Logistics workspace\erp\src\main\java\com\mylogistics\controller\NewVoucherCntlr.java
D:\Logistics workspace\erp\src\main\java\com\mylogistics\DAOImpl\ServiceTaxDAOImpl.java
D:\Logistics workspace\erp\src\main\java\com\mylogistics\services\NewVoucherService.java
D:\Logistics workspace\erp\src\main\java\com\mylogistics\constants\AddressCNTS.java
D:\Logistics workspace\erp\src\main\java\com\mylogistics\model\EMailReportList.java
D:\Logistics workspace\erp\src\main\java\com\mylogistics\services\BillService.java
D:\Logistics workspace\erp\src\main\java\com\mylogistics\DAOImpl\AddressDAOImpl.java
D:\Logistics workspace\erp\src\main\java\com\mylogistics\controller\bank\BankMstrCntlr.java
D:\Logistics workspace\erp\src\main\java\com\mylogistics\DAO\StationarySupplierDAO.java
D:\Logistics workspace\erp\src\main\java\com\mylogistics\controller\webservices\ChallanWebServiceCntlr.java
D:\Logistics workspace\erp\src\main\java\com\mylogistics\constants\BranchStockDispatchCNTS.java
D:\Logistics workspace\erp\src\main\java\com\mylogistics\model\webservice\OwnBrkApp.java
D:\Logistics workspace\erp\src\main\java\com\mylogistics\DAO\ProfitNLossDAO.java
D:\Logistics workspace\erp\src\main\java\com\mylogistics\services\BillDetService.java
D:\Logistics workspace\erp\src\main\java\com\mylogistics\controller\VehVoucherCntlr.java
D:\Logistics workspace\erp\src\main\java\com\mylogistics\controller\report\OsRptCntlr.java
D:\Logistics workspace\erp\src\main\java\com\mylogistics\controller\BranchCntlr.java
D:\Logistics workspace\erp\src\main\java\com\mylogistics\DAOImpl\report\ReportDAOImpl.java
D:\Logistics workspace\erp\src\main\java\com\mylogistics\controller\RelianceCnStatusController.java
D:\Logistics workspace\erp\src\main\java\com\mylogistics\DAO\UserDAO.java
D:\Logistics workspace\erp\src\main\java\com\mylogistics\constants\BillCNTS.java
D:\Logistics workspace\erp\src\main\java\com\mylogistics\DAO\FAParticularDAO.java
D:\Logistics workspace\erp\src\main\java\com\mylogistics\DAOImpl\LhpvTempDAOImpl.java
D:\Logistics workspace\erp\src\main\java\com\mylogistics\model\BranchStockLeafDet.java
D:\Logistics workspace\erp\src\main\java\com\mylogistics\DAO\EditBillDAO.java
D:\Logistics workspace\erp\src\main\java\com\mylogistics\DAO\OwnerOldDAO.java
D:\Logistics workspace\erp\src\main\java\com\mylogistics\DAOImpl\MiscFaDAOImpl.java
D:\Logistics workspace\erp\src\main\java\com\mylogistics\model\Wharehouse.java
D:\Logistics workspace\erp\src\main\java\com\mylogistics\services\bank\AtmCardService.java
D:\Logistics workspace\erp\src\main\java\com\mylogistics\controller\report\LedgerCntlr.java
D:\Logistics workspace\erp\src\main\java\com\mylogistics\constants\StationaryCNTS.java
D:\Logistics workspace\erp\src\main\java\com\mylogistics\services\InvAndDateService.java
D:\Logistics workspace\erp\src\main\java\com\mylogistics\model\RateByKm.java
D:\Logistics workspace\erp\src\main\java\com\mylogistics\constants\ContToStnCNTS.java
D:\Logistics workspace\erp\src\main\java\com\mylogistics\DAO\DailyContractOldDAO.java
D:\Logistics workspace\erp\src\main\java\com\mylogistics\model\OwnerImg.java
D:\Logistics workspace\erp\src\main\java\com\mylogistics\controller\Operator_DashboardCntlr.java
D:\Logistics workspace\erp\src\main\java\com\mylogistics\model\TelephoneMstr.java
D:\Logistics workspace\erp\src\main\java\com\mylogistics\DAO\report\RelAnnextureRptDAO.java
D:\Logistics workspace\erp\src\main\java\com\mylogistics\controller\StationarySupplierCntlr.java
D:\Logistics workspace\erp\src\main\java\com\mylogistics\DAO\BranchDAO.java
D:\Logistics workspace\erp\src\main\java\com\mylogistics\constants\UserRightsCNTS.java
D:\Logistics workspace\erp\src\main\java\com\mylogistics\DAOImpl\ChqCancelVoucherDAOImpl.java
D:\Logistics workspace\erp\src\main\java\com\mylogistics\services\UtilityService.java
D:\Logistics workspace\erp\src\main\java\com\mylogistics\model\AssestsNLiab.java
D:\Logistics workspace\erp\src\main\java\com\mylogistics\DAOImpl\DlyContAuthDAOImpl.java
D:\Logistics workspace\erp\src\main\java\com\mylogistics\DAOImpl\BrhWiseMunsDAOImpl.java
D:\Logistics workspace\erp\src\main\java\com\mylogistics\DAOImpl\ArrivalReportDAOImpl.java
D:\Logistics workspace\erp\src\main\java\com\mylogistics\DAOImpl\webservice\VehicleWebServiceDaoImpl.java
D:\Logistics workspace\erp\src\main\java\com\mylogistics\model\OwnBrkKycBusinessDetails.java
D:\Logistics workspace\erp\src\main\java\com\mylogistics\DAOImpl\ContractRightsDAOImpl.java
D:\Logistics workspace\erp\src\main\java\com\mylogistics\DAO\OwnerMasterDAO.java
D:\Logistics workspace\erp\src\main\java\com\mylogistics\model\BranchMUStats.java
D:\Logistics workspace\erp\src\main\java\com\mylogistics\DAOImpl\TelephoneMstrDAOImpl.java
D:\Logistics workspace\erp\src\main\java\com\mylogistics\services\InterBrTvVoucher.java
D:\Logistics workspace\erp\src\main\java\com\mylogistics\DAO\StationaryDAO.java
D:\Logistics workspace\erp\src\main\java\com\mylogistics\DAOImpl\RegularContractOldDAOImpl.java
D:\Logistics workspace\erp\src\main\java\com\mylogistics\services\MemoService.java
D:\Logistics workspace\erp\src\main\java\com\mylogistics\DAO\Cnmt_ChallanDAO.java
D:\Logistics workspace\erp\src\main\java\com\mylogistics\constants\CustomerBillStatusCNTS.java
D:\Logistics workspace\erp\src\main\java\com\mylogistics\DAOImpl\VehicleEngagementDAOImpl.java
D:\Logistics workspace\erp\src\main\java\com\mylogistics\model\PhoneMstr.java
D:\Logistics workspace\erp\src\main\java\com\mylogistics\model\Indent.java
D:\Logistics workspace\erp\src\main\java\com\mylogistics\DAO\RegularContractDAO.java
D:\Logistics workspace\erp\src\main\java\com\mylogistics\controller\report\CNMisReportCntlr.java
D:\Logistics workspace\erp\src\main\java\com\mylogistics\DAO\VehicleVendorDAO.java
D:\Logistics workspace\erp\src\main\java\com\mylogistics\validator\OnAccountingMRValidator.java
D:\Logistics workspace\erp\src\main\java\com\mylogistics\constants\CashStmtTempCNTS.java
D:\Logistics workspace\erp\src\main\java\com\mylogistics\services\mail\SmtpMailSender.java
D:\Logistics workspace\erp\src\main\java\com\mylogistics\controller\DisplayBrokerCntlr.java
D:\Logistics workspace\erp\src\main\java\com\mylogistics\mobileApi\controller\OwnerKYCCntlr.java
D:\Logistics workspace\erp\src\main\java\com\mylogistics\constants\webservice\ChallanAppCNTS.java
D:\Logistics workspace\erp\src\main\java\com\mylogistics\model\VehicleDataFrmAPI.java
D:\Logistics workspace\erp\src\main\java\com\mylogistics\model\AllowAdvance.java
D:\Logistics workspace\erp\src\main\java\com\mylogistics\DAO\HBO_StnNotificationDAO.java
D:\Logistics workspace\erp\src\main\java\com\mylogistics\constants\StationCNTS.java
D:\Logistics workspace\erp\src\main\java\com\mylogistics\DAOImpl\webservice\WebServiceDAOImpl.java
D:\Logistics workspace\erp\src\main\java\com\mylogistics\controller\StateCntlr.java
D:\Logistics workspace\erp\src\main\java\com\mylogistics\DAO\BranchSStatsDAO.java
D:\Logistics workspace\erp\src\main\java\com\mylogistics\constants\CashStmtCNTS.java
D:\Logistics workspace\erp\src\main\java\com\mylogistics\controller\Admin_DashboardCntlr.java
D:\Logistics workspace\erp\src\main\java\com\mylogistics\controller\VehAllotCntlr.java
D:\Logistics workspace\erp\src\main\java\com\mylogistics\services\BrStkDisDetService.java
D:\Logistics workspace\erp\src\main\java\com\mylogistics\constants\FaTravDivisionCNTS.java
D:\Logistics workspace\erp\src\main\java\com\mylogistics\model\webservice\LoadingModel.java
D:\Logistics workspace\erp\src\main\java\com\mylogistics\DAOImpl\HBOptr_NotificationDAOImpl.java
D:\Logistics workspace\erp\src\main\java\com\mylogistics\model\ContPerson.java
D:\Logistics workspace\erp\src\main\java\com\mylogistics\DAOImpl\RateByKmDAOImpl.java
D:\Logistics workspace\erp\src\main\java\com\mylogistics\model\CashStmt.java
D:\Logistics workspace\erp\src\main\java\com\mylogistics\services\TelVoucherService.java
D:\Logistics workspace\erp\src\main\java\com\mylogistics\DAOImpl\IBTVoucherDAOImpl.java
D:\Logistics workspace\erp\src\main\java\com\mylogistics\constants\Optr_NotificationCNTS.java
D:\Logistics workspace\erp\src\main\java\com\mylogistics\model\ContractRights.java
D:\Logistics workspace\erp\src\main\java\com\mylogistics\DAOImpl\CustomerGroupDAOImpl.java
D:\Logistics workspace\erp\src\main\java\com\mylogistics\model\Memo.java
D:\Logistics workspace\erp\src\main\java\com\mylogistics\controller\LhpvAdvCntlr.java
D:\Logistics workspace\erp\src\main\java\com\mylogistics\controller\ViewOwnerCntlr.java
D:\Logistics workspace\erp\src\main\java\com\mylogistics\services\VehVendorService.java
D:\Logistics workspace\erp\src\main\java\com\mylogistics\mobileApi\controller\model\VehicleVendorMstr.java
D:\Logistics workspace\erp\src\main\java\com\mylogistics\model\temp\BillTempDetail.java
D:\Logistics workspace\erp\src\main\java\com\mylogistics\controller\webservices\WebService.java
D:\Logistics workspace\erp\src\main\java\com\mylogistics\DAOImpl\ChCnSeDetailDAOImpl.java
D:\Logistics workspace\erp\src\main\java\com\mylogistics\model\VehicleVendorMstr.java
D:\Logistics workspace\erp\src\main\java\com\mylogistics\services\MultiCnmtServiceImpl.java
D:\Logistics workspace\erp\src\main\java\com\mylogistics\DAO\CashStmtTempDAO.java
D:\Logistics workspace\erp\src\main\java\com\mylogistics\DAO\BrokerDAO.java
D:\Logistics workspace\erp\src\main\java\com\mylogistics\constants\NarrationCNTS.java
D:\Logistics workspace\erp\src\main\java\com\mylogistics\DAO\temp\BillTempDAO.java
D:\Logistics workspace\erp\src\main\java\com\mylogistics\constants\ContractCNTS.java
D:\Logistics workspace\erp\src\main\java\com\mylogistics\services\MoneyReceiptService.java
D:\Logistics workspace\erp\src\main\java\com\mylogistics\services\OwnerMasterService.java
D:\Logistics workspace\erp\src\main\java\com\mylogistics\controller\CustomerGroupCntlr.java
D:\Logistics workspace\erp\src\main\java\com\mylogistics\DAO\PhoneMstrDAO.java
D:\Logistics workspace\erp\src\main\java\com\mylogistics\model\lhpv\BrhWiseMuns.java
D:\Logistics workspace\erp\src\main\java\com\mylogistics\model\PetroCardAdv.java
D:\Logistics workspace\erp\src\main\java\com\mylogistics\model\BranchSStats.java
D:\Logistics workspace\erp\src\main\java\com\mylogistics\model\OwnerMaster.java
D:\Logistics workspace\erp\src\main\java\com\mylogistics\model\BrokerOld.java
D:\Logistics workspace\erp\src\main\java\com\mylogistics\DAO\TermNConditionDAO.java
D:\Logistics workspace\erp\src\main\java\com\mylogistics\model\CustomerRepresentative.java
D:\Logistics workspace\erp\src\main\java\com\mylogistics\controller\CustomerRepCntlr.java
D:\Logistics workspace\erp\src\main\java\com\mylogistics\model\bank\AtmCardMstr.java
D:\Logistics workspace\erp\src\main\java\com\mylogistics\services\TravVoucherService.java
D:\Logistics workspace\erp\src\main\java\com\mylogistics\DAO\LhpvTempDAO.java
D:\Logistics workspace\erp\src\main\java\com\mylogistics\model\CampaignResults.java
D:\Logistics workspace\erp\src\main\java\com\mylogistics\model\MoneyReceipt.java
D:\Logistics workspace\erp\src\main\java\com\mylogistics\DAO\VehicleMstrDAO.java
D:\Logistics workspace\erp\src\main\java\com\mylogistics\controller\DisplaySupplierCntlr.java
D:\Logistics workspace\erp\src\main\java\com\mylogistics\model\PenaltyBonusDetention.java
D:\Logistics workspace\erp\src\main\java\com\mylogistics\model\FAParticular.java
D:\Logistics workspace\erp\src\main\java\com\mylogistics\exception\custom\CustomerException.java
D:\Logistics workspace\erp\src\main\java\com\mylogistics\constants\ArrivalReportCNTS.java
D:\Logistics workspace\erp\src\main\java\com\mylogistics\DAO\EmployeeOldDAO.java
D:\Logistics workspace\erp\src\main\java\com\mylogistics\DAO\SubVehicleMstrDAO.java
D:\Logistics workspace\erp\src\main\java\com\mylogistics\DAOImpl\FAParticularDAOImpl.java
D:\Logistics workspace\erp\src\main\java\com\mylogistics\DAOImpl\HOSLastDAOImpl.java
D:\Logistics workspace\erp\src\main\java\com\mylogistics\DAO\ServiceTaxDAO.java
D:\Logistics workspace\erp\src\main\java\com\mylogistics\controller\CNDetReportCntlr.java
D:\Logistics workspace\erp\src\main\java\com\mylogistics\DAO\BillForwardingDAO.java
D:\Logistics workspace\erp\src\main\java\com\mylogistics\constants\bank\BankMstrCNTS.java
D:\Logistics workspace\erp\src\main\java\com\mylogistics\DAO\FYearDAO.java
D:\Logistics workspace\erp\src\main\java\com\mylogistics\model\lhpv\LhpvSup.java
D:\Logistics workspace\erp\src\main\java\com\mylogistics\services\StationaryService.java
D:\Logistics workspace\erp\src\main\java\com\mylogistics\constants\HOSLastCNTS.java
D:\Logistics workspace\erp\src\main\java\com\mylogistics\DAOImpl\UserDAOImpl.java
D:\Logistics workspace\erp\src\main\java\com\mylogistics\constants\FAParticularCNTS.java
D:\Logistics workspace\erp\src\main\java\com\mylogistics\DAOImpl\ElectricityMstrDAOImpl.java
D:\Logistics workspace\erp\src\main\java\com\mylogistics\controller\report\RelianceOsRptController.java
D:\Logistics workspace\erp\src\main\java\com\mylogistics\DAOImpl\CustomerRightsDAOImpl.java
D:\Logistics workspace\erp\src\main\java\com\mylogistics\DAOImpl\StationarySupplierDAOImpl.java
D:\Logistics workspace\erp\src\main\java\com\mylogistics\model\ChallanDetail.java
D:\Logistics workspace\erp\src\main\java\com\mylogistics\constants\PenaltyBonusDetentonCNTS.java
D:\Logistics workspace\erp\src\main\java\com\mylogistics\model\FYear.java
D:\Logistics workspace\erp\src\main\java\com\mylogistics\controller\CashStmtCntlr.java
D:\Logistics workspace\erp\src\main\java\com\mylogistics\constants\DlyContAuthCNTS.java
D:\Logistics workspace\erp\src\main\java\com\mylogistics\DAO\CustomerDAO.java
D:\Logistics workspace\erp\src\main\java\com\mylogistics\DAOImpl\BranchRightsDAOImpl.java
D:\Logistics workspace\erp\src\main\java\com\mylogistics\constants\CustomerRightsCNTS.java
D:\Logistics workspace\erp\src\main\java\com\mylogistics\controller\RegularContractCntlr.java
D:\Logistics workspace\erp\src\main\java\com\mylogistics\model\ProfitNLoss.java
D:\Logistics workspace\erp\src\main\java\com\mylogistics\DAOImpl\Acknowledge_ValidationDaoImpl.java
D:\Logistics workspace\erp\src\main\java\com\mylogistics\pdf\CnmtPDFBuilder.java
D:\Logistics workspace\erp\src\main\java\com\mylogistics\DAO\ChCnSeDetailDAO.java
D:\Logistics workspace\erp\src\main\java\com\mylogistics\DAOImpl\BranchDAOImpl.java
D:\Logistics workspace\erp\src\main\java\com\mylogistics\constants\BranchStockLeafDetCNTS.java
D:\Logistics workspace\erp\src\main\java\com\mylogistics\DAOImpl\BrokerDAOImpl.java
D:\Logistics workspace\erp\src\main\java\com\mylogistics\config\ServletContextListenerImpl.java
D:\Logistics workspace\erp\src\main\java\com\mylogistics\constants\ChBlArDetailCNTS.java
D:\Logistics workspace\erp\src\main\java\com\mylogistics\model\Stationary.java
D:\Logistics workspace\erp\src\main\java\com\mylogistics\DAOImpl\StateDAOImpl.java
D:\Logistics workspace\erp\src\main\java\com\mylogistics\controller\DisallowAdvanceCntlr.java
D:\Logistics workspace\erp\src\main\java\com\mylogistics\model\bank\ChequeLeaves.java
D:\Logistics workspace\erp\src\main\java\com\mylogistics\controller\CustBillPrmsnCntlr.java
D:\Logistics workspace\erp\src\main\java\com\mylogistics\DAOImpl\CashStmtDAOImpl.java
D:\Logistics workspace\erp\src\main\java\com\mylogistics\controller\AddContToStnCntlr.java
D:\Logistics workspace\erp\src\main\java\com\mylogistics\model\ServiceTax.java
D:\Logistics workspace\erp\src\main\java\com\mylogistics\DAO\CnmtDAO.java
D:\Logistics workspace\erp\src\main\java\com\mylogistics\controller\IndentCntlr.java
D:\Logistics workspace\erp\src\main\java\com\mylogistics\constants\bank\ChequeRequestCNTS.java
D:\Logistics workspace\erp\src\main\java\com\mylogistics\services\TPMstrService.java
D:\Logistics workspace\erp\src\main\java\com\mylogistics\model\BankStmtUpld.java
D:\Logistics workspace\erp\src\main\java\com\mylogistics\DAO\OwnerDAO.java
D:\Logistics workspace\erp\src\main\java\com\mylogistics\DAOImpl\HBO_StnNotificationDAOImpl.java
D:\Logistics workspace\erp\src\main\java\com\mylogistics\services\bank\BankBranchService.java
D:\Logistics workspace\erp\src\main\java\com\mylogistics\services\impl\CashStmtStatusServiceImpl.java
D:\Logistics workspace\erp\src\main\java\com\mylogistics\model\Cnmt_Challan.java
D:\Logistics workspace\erp\src\main\java\com\mylogistics\DAO\werservice\VehicleWebServiceDao.java
D:\Logistics workspace\erp\src\main\java\com\mylogistics\mobileApi\controller\VehicleVendorMstrCntlr.java
D:\Logistics workspace\erp\src\main\java\com\mylogistics\DAO\OtherChargeDAO.java
D:\Logistics workspace\erp\src\main\java\com\mylogistics\constants\SubVehicleMstrCNTS.java
D:\Logistics workspace\erp\src\main\java\com\mylogistics\model\DailyContractOld.java
D:\Logistics workspace\erp\src\main\java\com\mylogistics\model\EmployeeOld.java
D:\Logistics workspace\erp\src\main\java\com\mylogistics\model\UserRights.java
D:\Logistics workspace\erp\src\main\java\com\mylogistics\controller\DirPayMRCntlr.java
D:\Logistics workspace\erp\src\main\java\com\mylogistics\controller\CRNAllotCntlr.java
D:\Logistics workspace\erp\src\main\java\com\mylogistics\services\BankMasterService.java
D:\Logistics workspace\erp\src\main\java\com\mylogistics\controller\CashDepositeCntlr.java
D:\Logistics workspace\erp\src\main\java\com\mylogistics\model\TermNCondition.java
D:\Logistics workspace\erp\src\main\java\com\mylogistics\DAOImpl\CampaignResultDAOImpl.java
D:\Logistics workspace\erp\src\main\java\com\mylogistics\services\ContToStnServiceImpl.java
D:\Logistics workspace\erp\src\main\java\com\mylogistics\DAOImpl\LhpvStatusDAOImpl.java
D:\Logistics workspace\erp\src\main\java\com\mylogistics\services\MultipleStateServiceImpl.java
D:\Logistics workspace\erp\src\main\java\com\mylogistics\model\Cnmt.java
D:\Logistics workspace\erp\src\main\java\com\mylogistics\constants\CnmtImageCNTS.java
D:\Logistics workspace\erp\src\main\java\com\mylogistics\services\RBKMServiceImpl.java
D:\Logistics workspace\erp\src\main\java\com\mylogistics\controller\LhpvBalCntlr.java
D:\Logistics workspace\erp\src\main\java\com\mylogistics\DAOImpl\webservice\ChallanWebServiceDaoImpl.java
D:\Logistics workspace\erp\src\main\java\com\mylogistics\controller\FundAllocationCntlr.java
D:\Logistics workspace\erp\src\main\java\com\mylogistics\model\lhpv\LhpvStatus.java
D:\Logistics workspace\erp\src\main\java\com\mylogistics\model\lhpv\LhpvBal.java
D:\Logistics workspace\erp\src\main\java\com\mylogistics\model\BillForwarding.java
D:\Logistics workspace\erp\src\main\java\com\mylogistics\DAO\report\EnquiryDAO.java
D:\Logistics workspace\erp\src\main\java\com\mylogistics\DAOImpl\RevVoucherDAOImpl.java
D:\Logistics workspace\erp\src\main\java\com\mylogistics\DAOImpl\report\RelAnnextureRptDaoImpl.java
D:\Logistics workspace\erp\src\main\java\com\mylogistics\DAO\RemarksDAO.java
D:\Logistics workspace\erp\src\main\java\com\mylogistics\controller\UserCntlr.java
D:\Logistics workspace\erp\src\main\java\com\mylogistics\DAOImpl\CustomerDAOImpl.java
D:\Logistics workspace\erp\src\main\java\com\mylogistics\DAO\AssestsNLiabDAO.java
D:\Logistics workspace\erp\src\main\java\com\mylogistics\controller\webservices\VehicleWebService.java
D:\Logistics workspace\erp\src\main\java\com\mylogistics\model\RentMstr.java
D:\Logistics workspace\erp\src\main\java\com\mylogistics\DAO\FaBPromDAO.java
D:\Logistics workspace\erp\src\main\java\com\mylogistics\DAOImpl\Cnmt_ChallanDAOImpl.java
D:\Logistics workspace\erp\src\main\java\com\mylogistics\model\ChBlArDetail.java
D:\Logistics workspace\erp\src\main\java\com\mylogistics\DAOImpl\FaMasterDAOImpl.java
D:\Logistics workspace\erp\src\main\java\com\mylogistics\model\VehicleType.java
D:\Logistics workspace\erp\src\main\java\com\mylogistics\DAO\FaMasterDAO.java
D:\Logistics workspace\erp\src\main\java\com\mylogistics\controller\DailyContractCntlr.java
D:\Logistics workspace\erp\src\main\java\com\mylogistics\services\EMstrService.java
D:\Logistics workspace\erp\src\main\java\com\mylogistics\model\OtherCharge.java
D:\Logistics workspace\erp\src\main\java\com\mylogistics\DAO\ChqPayVoucherDAO.java
D:\Logistics workspace\erp\src\main\java\com\mylogistics\controller\BillFrwdCntlr.java
D:\Logistics workspace\erp\src\main\java\com\mylogistics\services\ImageService.java
D:\Logistics workspace\erp\src\main\java\com\mylogistics\controller\report\ShortExcessRptCntlr.java
D:\Logistics workspace\erp\src\main\java\com\mylogistics\DAO\FaTravDivisionDAO.java
D:\Logistics workspace\erp\src\main\java\com\mylogistics\model\MultipleState.java
D:\Logistics workspace\erp\src\main\java\com\mylogistics\DAO\IndentDAO.java
D:\Logistics workspace\erp\src\main\java\com\mylogistics\model\RegularContract.java
D:\Logistics workspace\erp\src\main\java\com\mylogistics\controller\CampaignResultCntlr.java
D:\Logistics workspace\erp\src\main\java\com\mylogistics\DAO\bank\AtmCardDAO.java
D:\Logistics workspace\erp\src\main\java\com\mylogistics\constants\HBO_StnNotificationCNTS.java
D:\Logistics workspace\erp\src\main\java\com\mylogistics\DAOImpl\report\EnquiryDAOImpl.java
D:\Logistics workspace\erp\src\main\java\com\mylogistics\services\MultipleStationService.java
D:\Logistics workspace\erp\src\main\java\com\mylogistics\services\InvoiceServiceImpl.java
D:\Logistics workspace\erp\src\main\java\com\mylogistics\model\StationRights.java
D:\Logistics workspace\erp\src\main\java\com\mylogistics\constants\RegularContractCNTS.java
D:\Logistics workspace\erp\src\main\java\com\mylogistics\DAOImpl\AllImgDaoImpl.java
D:\Logistics workspace\erp\src\main\java\com\mylogistics\controller\CloseLhpvTempCntlr.java
D:\Logistics workspace\erp\src\main\java\com\mylogistics\model\dataintegration\CnmtView.java
D:\Logistics workspace\erp\src\main\java\com\mylogistics\services\Layouter.java
D:\Logistics workspace\erp\src\main\java\com\mylogistics\controller\BillCancelCntlr.java
D:\Logistics workspace\erp\src\main\java\com\mylogistics\services\ContactMobileService.java
D:\Logistics workspace\erp\src\main\java\com\mylogistics\controller\DisplayCustomerCntlr.java
D:\Logistics workspace\erp\src\main\java\com\mylogistics\controller\DirectUrlCntlr.java
D:\Logistics workspace\erp\src\main\java\com\mylogistics\DAO\bank\ChequeLeavesDAO.java
D:\Logistics workspace\erp\src\main\java\com\mylogistics\DAOImpl\Optr_NotificationDAOImpl.java
D:\Logistics workspace\erp\src\main\java\com\mylogistics\controller\ElectVoucherCntlr.java
D:\Logistics workspace\erp\src\main\java\com\mylogistics\constants\StationaryStockCNTS.java
D:\Logistics workspace\erp\src\main\java\com\mylogistics\services\DispatchCodeService.java
D:\Logistics workspace\erp\src\main\java\com\mylogistics\controller\BrhWiseMunsCntlr.java
D:\Logistics workspace\erp\src\main\java\com\mylogistics\model\BankCS.java
D:\Logistics workspace\erp\src\main\java\com\mylogistics\DAOImpl\TempIntBrTvDAOImpl.java
D:\Logistics workspace\erp\src\main\java\com\mylogistics\services\MultipleStationServiceImpl.java
D:\Logistics workspace\erp\src\main\java\com\mylogistics\controller\RentCntlr.java
D:\Logistics workspace\erp\src\main\java\com\mylogistics\constants\CustomerCNTS.java
D:\Logistics workspace\erp\src\main\java\com\mylogistics\DAOImpl\DailyContractOldDAOImpl.java
D:\Logistics workspace\erp\src\main\java\com\mylogistics\model\SubElectricityMstr.java
D:\Logistics workspace\erp\src\main\java\com\mylogistics\services\impl\NewVoucherServiceImpl.java
D:\Logistics workspace\erp\src\main\java\com\mylogistics\DAOImpl\EditBillDAOImpl.java
D:\Logistics workspace\erp\src\main\java\com\mylogistics\model\FundAllocation.java
D:\Logistics workspace\erp\src\main\java\com\mylogistics\controller\DisplayCustRepCntlr.java
D:\Logistics workspace\erp\src\main\java\com\mylogistics\DAO\DailyContractDAO.java
D:\Logistics workspace\erp\src\main\java\com\mylogistics\controller\bank\AtmCardMstrCntlr.java
D:\Logistics workspace\erp\src\main\java\com\mylogistics\services\ElectVoucherService.java
D:\Logistics workspace\erp\src\main\java\com\mylogistics\constants\MoneyReceiptCNTS.java
D:\Logistics workspace\erp\src\main\java\com\mylogistics\DAOImpl\EmployeeDAOImpl.java
D:\Logistics workspace\erp\src\main\java\com\mylogistics\controller\ExtContDtCntlr.java
D:\Logistics workspace\erp\src\main\java\com\mylogistics\controller\BrokerCntlr.java
D:\Logistics workspace\erp\src\main\java\com\mylogistics\constants\EmployeeCNTS.java
D:\Logistics workspace\erp\src\main\java\com\mylogistics\DAOImpl\WharehouseDAOImpl.java
D:\Logistics workspace\erp\src\main\java\com\mylogistics\constants\UserCNTS.java
D:\Logistics workspace\erp\src\main\java\com\mylogistics\DAOImpl\MoneyReceiptDAOImpl.java
D:\Logistics workspace\erp\src\main\java\com\mylogistics\model\ContToStn.java
D:\Logistics workspace\erp\src\main\java\com\mylogistics\model\Payment.java
D:\Logistics workspace\erp\src\main\java\com\mylogistics\controller\CloseVoucherCntlr.java
D:\Logistics workspace\erp\src\main\java\com\mylogistics\controller\BTBFundTransCntlr.java
D:\Logistics workspace\erp\src\main\java\com\mylogistics\services\impl\MoneyReceiptServiceImpl.java
D:\Logistics workspace\erp\src\main\java\com\mylogistics\services\EM_SEMService.java
D:\Logistics workspace\erp\src\main\java\com\mylogistics\model\lhpv\Munsiana.java
D:\Logistics workspace\erp\src\main\java\com\mylogistics\services\SuperAdminBehave.java
D:\Logistics workspace\erp\src\main\java\com\mylogistics\model\webservice\AddressApp.java
D:\Logistics workspace\erp\src\main\java\com\mylogistics\DAOImpl\BranchOldDAOImpl.java
D:\Logistics workspace\erp\src\main\java\com\mylogistics\DAO\Optr_NotificationDAO.java
D:\Logistics workspace\erp\src\main\java\com\mylogistics\constants\StationarySupplierCNTS.java
D:\Logistics workspace\erp\src\main\java\com\mylogistics\services\InvoiceService.java
D:\Logistics workspace\erp\src\main\java\com\mylogistics\pdf\PDFBuilder.java
D:\Logistics workspace\erp\src\main\java\com\mylogistics\services\EmailUsingPhpService.java
D:\Logistics workspace\erp\src\main\java\com\mylogistics\model\CashStmtTemp.java
D:\Logistics workspace\erp\src\main\java\com\mylogistics\services\ConstantsValues.java
D:\Logistics workspace\erp\src\main\java\com\mylogistics\model\dataintegration\MiscFaDemo.java
D:\Logistics workspace\erp\src\main\java\com\mylogistics\controller\report\TrialCntlr.java
D:\Logistics workspace\erp\src\main\java\com\mylogistics\services\OtherChgService.java
D:\Logistics workspace\erp\src\main\java\com\mylogistics\model\app\AppLoginOTP.java
D:\Logistics workspace\erp\src\main\java\com\mylogistics\model\MasterStationaryStk.java
D:\Logistics workspace\erp\src\main\java\com\mylogistics\controller\EmpWiseAssgnCntlr.java
D:\Logistics workspace\erp\src\main\java\com\mylogistics\DAO\CustomerGroupDAO.java
D:\Logistics workspace\erp\src\main\java\com\mylogistics\services\TelVoucherServiceImpl.java
D:\Logistics workspace\erp\src\main\java\com\mylogistics\DAOImpl\FaBPromDAOImpl.java
D:\Logistics workspace\erp\src\main\java\com\mylogistics\constants\webservice\OwnBrkAppCNTS.java
D:\Logistics workspace\erp\src\main\java\com\mylogistics\model\VehicleMstr.java
D:\Logistics workspace\erp\src\main\java\com\mylogistics\DAO\BranchOldDAO.java
D:\Logistics workspace\erp\src\main\java\com\mylogistics\DAOImpl\bank\ChequeLeavesDAOImpl.java
D:\Logistics workspace\erp\src\main\java\com\mylogistics\model\MiscFa.java
D:\Logistics workspace\erp\src\main\java\com\mylogistics\DAOImpl\CnmtDAOImpl.java
D:\Logistics workspace\erp\src\main\java\com\mylogistics\constants\BranchMUStatsCNTS.java
D:\Logistics workspace\erp\src\main\java\com\mylogistics\DAO\CampaignResultDAO.java
D:\Logistics workspace\erp\src\main\java\com\mylogistics\controller\EditBillCntlr.java
D:\Logistics workspace\erp\src\main\java\com\mylogistics\services\DownloadService.java
D:\Logistics workspace\erp\src\main\java\com\mylogistics\DAO\CustomerOldDAO.java
D:\Logistics workspace\erp\src\main\java\com\mylogistics\constants\HOSStatsCNTS.java
D:\Logistics workspace\erp\src\main\java\com\mylogistics\constants\LhpvBalCNTS.java
D:\Logistics workspace\erp\src\main\java\com\mylogistics\model\BranchStockDisDet.java
D:\Logistics workspace\erp\src\main\java\com\mylogistics\model\TransferVehicle.java
D:\Logistics workspace\erp\src\main\java\com\mylogistics\controller\ChqPayVoucherCntlr.java
D:\Logistics workspace\erp\src\main\java\com\mylogistics\constants\OtherChargeCNTS.java
D:\Logistics workspace\erp\src\main\java\com\mylogistics\services\MultiCnmtService.java
D:\Logistics workspace\erp\src\main\java\com\mylogistics\services\ContToStnService.java
D:\Logistics workspace\erp\src\main\java\com\mylogistics\controller\OnAccMRCntlr.java
D:\Logistics workspace\erp\src\main\java\com\mylogistics\model\Station.java
D:\Logistics workspace\erp\src\main\java\com\mylogistics\constants\LhpvSupCNTS.java
D:\Logistics workspace\erp\src\main\java\com\mylogistics\services\MailMail.java
D:\Logistics workspace\erp\src\main\java\com\mylogistics\DAOImpl\PhoneMstrDAOImpl.java
D:\Logistics workspace\erp\src\main\java\com\mylogistics\DAOImpl\ContToStnDAOImpl.java
D:\Logistics workspace\erp\src\main\java\com\mylogistics\controller\LhpvPrintCntlr.java
D:\Logistics workspace\erp\src\main\java\com\mylogistics\controller\CloseLhpvCntlr.java
D:\Logistics workspace\erp\src\main\java\com\mylogistics\services\BPVoucherService.java
D:\Logistics workspace\erp\src\main\java\com\mylogistics\model\Owner.java
D:\Logistics workspace\erp\src\main\java\com\mylogistics\DAO\OwnBrkKycBusinessDetailsDAO.java
D:\Logistics workspace\erp\src\main\java\com\mylogistics\constants\webservice\LoadingModelCNTS.java
D:\Logistics workspace\erp\src\main\java\com\mylogistics\services\Cust_CustRepService.java
D:\Logistics workspace\erp\src\main\java\com\mylogistics\model\Narration.java
D:\Logistics workspace\erp\src\main\java\com\mylogistics\services\PBDService.java
D:\Logistics workspace\erp\src\main\java\com\mylogistics\services\CsTempNCsListService.java
D:\Logistics workspace\erp\src\main\java\com\mylogistics\controller\AsgnUserCntlr.java
D:\Logistics workspace\erp\src\main\java\com\mylogistics\constants\RateByKmCNTS.java
D:\Logistics workspace\erp\src\main\java\com\mylogistics\pdf\LedgerReportPDFBuilder.java
D:\Logistics workspace\erp\src\main\java\com\mylogistics\DAO\CashStmtStatusDAO.java
D:\Logistics workspace\erp\src\main\java\com\mylogistics\constants\BillForwardingCNTS.java
D:\Logistics workspace\erp\src\main\java\com\mylogistics\controller\JourVoucherCntlr.java
D:\Logistics workspace\erp\src\main\java\com\mylogistics\controller\CancelMRCntlr.java
D:\Logistics workspace\erp\src\main\java\com\mylogistics\DAO\ChqCancelVoucherDAO.java
D:\Logistics workspace\erp\src\main\java\com\mylogistics\DAO\TempIntBrTvDAO.java
D:\Logistics workspace\erp\src\main\java\com\mylogistics\controller\PhoneAllotCntlr.java
D:\Logistics workspace\erp\src\main\java\com\mylogistics\DAO\bank\ChequeBookDAO.java
D:\Logistics workspace\erp\src\main\java\com\mylogistics\constants\StationRightsCNTS.java
D:\Logistics workspace\erp\src\main\java\com\mylogistics\model\HBO_StnNotification.java
D:\Logistics workspace\erp\src\main\java\com\mylogistics\controller\LhpvBalTempCntlr.java
D:\Logistics workspace\erp\src\main\java\com\mylogistics\DAO\werservice\LoadingDao.java
D:\Logistics workspace\erp\src\main\java\com\mylogistics\constants\MultipleStateCNTS.java
D:\Logistics workspace\erp\src\main\java\com\mylogistics\model\Employee.java
D:\Logistics workspace\erp\src\main\java\com\mylogistics\DAOImpl\EmployeeOldDAOImpl.java
D:\Logistics workspace\erp\src\main\java\com\mylogistics\constants\StationaryOrderCNTS.java
D:\Logistics workspace\erp\src\main\java\com\mylogistics\services\impl\BankMasterServiceImpl.java
D:\Logistics workspace\erp\src\main\java\com\mylogistics\model\bank\ChequeRequest.java
D:\Logistics workspace\erp\src\main\java\com\mylogistics\DAOImpl\VehicleMstrDAOImpl.java
D:\Logistics workspace\erp\src\main\java\com\mylogistics\model\ProductType.java
D:\Logistics workspace\erp\src\main\java\com\mylogistics\DAOImpl\OtherChargeDAOImpl.java
D:\Logistics workspace\erp\src\main\java\com\mylogistics\constants\OwnerCNTS.java
D:\Logistics workspace\erp\src\main\java\com\mylogistics\constants\BankCSCNTS.java
D:\Logistics workspace\erp\src\main\java\com\mylogistics\controller\IntBrTVCrDrCntlr.java
D:\Logistics workspace\erp\src\main\java\com\mylogistics\DAO\RegularContractOldDAO.java
D:\Logistics workspace\erp\src\main\java\com\mylogistics\DAOImpl\CustomerOldDAOImpl.java
D:\Logistics workspace\erp\src\main\java\com\mylogistics\controller\ViewCashRecieptCntlr.java
D:\Logistics workspace\erp\src\main\java\com\mylogistics\controller\VehicleVendorCntlr.java
D:\Logistics workspace\erp\src\main\java\com\mylogistics\DAO\RevVoucherDAO.java
D:\Logistics workspace\erp\src\main\java\com\mylogistics\DAO\WharehouseDAO.java
D:\Logistics workspace\erp\src\main\java\com\mylogistics\constants\DailyContractOldCNTS.java
D:\Logistics workspace\erp\src\main\java\com\mylogistics\model\Customer.java
D:\Logistics workspace\erp\src\main\java\com\mylogistics\model\ChCnSeDetail.java
D:\Logistics workspace\erp\src\main\java\com\mylogistics\DAO\AllImgDao.java
D:\Logistics workspace\erp\src\main\java\com\mylogistics\constants\MunsianaCNTS.java
D:\Logistics workspace\erp\src\main\java\com\mylogistics\constants\webservice\VehicleAppCNTS.java
D:\Logistics workspace\erp\src\main\java\com\mylogistics\model\BTBFundTrans.java
D:\Logistics workspace\erp\src\main\java\com\mylogistics\DAOImpl\SubElectricityMstrDAOImpl.java
D:\Logistics workspace\erp\src\main\java\com\mylogistics\controller\DisplayEmployeeCntlr.java
D:\Logistics workspace\erp\src\main\java\com\mylogistics\DAOImpl\FaTravDivisionDAOImpl.java
D:\Logistics workspace\erp\src\main\java\com\mylogistics\controller\FYearCntlr.java
D:\Logistics workspace\erp\src\main\java\com\mylogistics\DAOImpl\PetroCardDAOImpl.java
D:\Logistics workspace\erp\src\main\java\com\mylogistics\model\Challan.java
D:\Logistics workspace\erp\src\main\java\com\mylogistics\model\PetroCard.java
D:\Logistics workspace\erp\src\main\java\com\mylogistics\model\HilAddress.java
D:\Logistics workspace\erp\src\main\java\com\mylogistics\controller\PayableRptCntlr.java
D:\Logistics workspace\erp\src\main\java\com\mylogistics\model\lhpv\LhpvAdv.java
D:\Logistics workspace\erp\src\main\java\com\mylogistics\DAO\PenaltyBonusDetentionDAO.java
D:\Logistics workspace\erp\src\main\java\com\mylogistics\DAOImpl\SubTelephoneMstrDAOImpl.java
D:\Logistics workspace\erp\src\main\java\com\mylogistics\services\PanService.java
D:\Logistics workspace\erp\src\main\java\com\mylogistics\DAOImpl\ChallanDAOImpl.java
D:\Logistics workspace\erp\src\main\java\com\mylogistics\model\BranchRights.java
D:\Logistics workspace\erp\src\main\java\com\mylogistics\services\BPromService.java
D:\Logistics workspace\erp\src\main\java\com\mylogistics\constants\MultipleStationCNTS.java
D:\Logistics workspace\erp\src\main\java\com\mylogistics\DAO\UserRightsDAO.java
D:\Logistics workspace\erp\src\main\java\com\mylogistics\pdf\AbstractITextPdfView.java
D:\Logistics workspace\erp\src\main\java\com\mylogistics\constants\HBOptr_NotificationCNTS.java
D:\Logistics workspace\erp\src\main\java\com\mylogistics\model\ElectricityMstr.java
D:\Logistics workspace\erp\src\main\java\com\mylogistics\model\RentDetail.java
D:\Logistics workspace\erp\src\main\java\com\mylogistics\services\DispatchDetailService.java
D:\Logistics workspace\erp\src\main\java\com\mylogistics\constants\LhpvAdvCNTS.java
D:\Logistics workspace\erp\src\main\java\com\mylogistics\DAO\RateByKmDAO.java
D:\Logistics workspace\erp\src\main\java\com\mylogistics\services\CPVoucherService.java
D:\Logistics workspace\erp\src\main\java\com\mylogistics\controller\report\EnquiryCntlr.java
D:\Logistics workspace\erp\src\main\java\com\mylogistics\services\bank\BankMstrService.java
D:\Logistics workspace\erp\src\main\java\com\mylogistics\controller\MessageCntlr.java
D:\Logistics workspace\erp\src\main\java\com\mylogistics\model\Bill.java
D:\Logistics workspace\erp\src\main\java\com\mylogistics\model\LhpvTemp.java
D:\Logistics workspace\erp\src\main\java\com\mylogistics\constants\EmployeeOldCNTS.java
D:\Logistics workspace\erp\src\main\java\com\mylogistics\DAOImpl\CashStmtTempDAOImpl.java
D:\Logistics workspace\erp\src\main\java\com\mylogistics\services\JourVouchDRCR.java
D:\Logistics workspace\erp\src\main\java\com\mylogistics\services\SessionService.java
D:\Logistics workspace\erp\src\main\java\com\mylogistics\constants\BrhWiseMunsCNTS.java
D:\Logistics workspace\erp\src\main\java\com\mylogistics\DAO\HBOptr_NotificationDAO.java
D:\Logistics workspace\erp\src\main\java\com\mylogistics\model\dataintegration\ProfitNLossDemo.java
D:\Logistics workspace\erp\src\main\java\com\mylogistics\services\VehVoucherService.java
D:\Logistics workspace\erp\src\main\java\com\mylogistics\constants\VehicleVendorMstrCNTS.java
D:\Logistics workspace\erp\src\main\java\com\mylogistics\DAO\CashStmtDAO.java
D:\Logistics workspace\erp\src\main\java\com\mylogistics\model\webservice\CnmtChlnApp.java
D:\Logistics workspace\erp\src\main\java\com\mylogistics\DAOImpl\FundAllocationDaoImpl.java
D:\Logistics workspace\erp\src\main\java\com\mylogistics\services\ElectVoucherServiceImpl.java
D:\Logistics workspace\erp\src\main\java\com\mylogistics\services\BFService.java
D:\Logistics workspace\erp\src\main\java\com\mylogistics\services\JVouchService.java
D:\Logistics workspace\erp\src\main\java\com\mylogistics\controller\BPVoucherCntlr.java
D:\Logistics workspace\erp\src\main\java\com\mylogistics\DAO\HOSLastDAO.java
D:\Logistics workspace\erp\src\main\java\com\mylogistics\constants\ServiceTaxCNTS.java
D:\Logistics workspace\erp\src\main\java\com\mylogistics\controller\report\StockAndOsRptCntlr.java
D:\Logistics workspace\erp\src\main\java\com\mylogistics\model\SubVehicleMstr.java
D:\Logistics workspace\erp\src\main\java\com\mylogistics\DAO\LhpvStatusDAO.java
D:\Logistics workspace\erp\src\main\java\com\mylogistics\services\NotificationDate.java
D:\Logistics workspace\erp\src\main\java\com\mylogistics\DAOImpl\IndentDAOImpl.java
D:\Logistics workspace\erp\src\main\java\com\mylogistics\services\TravVoucherServiceImpl.java
D:\Logistics workspace\erp\src\main\java\com\mylogistics\DAO\IndentOwnerMasterDAO.java
D:\Logistics workspace\erp\src\main\java\com\mylogistics\DAOImpl\BrokerOldDAOImpl.java
D:\Logistics workspace\erp\src\main\java\com\mylogistics\DAO\ArrivalReportDAO.java
D:\Logistics workspace\erp\src\main\java\com\mylogistics\DAO\VehicleEngagementDAO.java
D:\Logistics workspace\erp\src\main\java\com\mylogistics\DAO\RelBillAddressDAO.java
D:\Logistics workspace\erp\src\main\java\com\mylogistics\services\CustomerNCustomerRep.java
D:\Logistics workspace\erp\src\main\java\com\mylogistics\DAOImpl\DailyContractDAOImpl.java
D:\Logistics workspace\erp\src\main\java\com\mylogistics\DAOImpl\OwnBrkKycBusinessDetailsDAOImpl.java
D:\Logistics workspace\erp\src\main\java\com\mylogistics\services\NumToWords.java
D:\Logistics workspace\erp\src\main\java\com\mylogistics\controller\StationaryCntlr.java
D:\Logistics workspace\erp\src\main\java\com\mylogistics\model\temp\BillTempMain.java
D:\Logistics workspace\erp\src\main\java\com\mylogistics\services\mail\MailScheduler.java
D:\Logistics workspace\erp\src\main\java\com\mylogistics\DAOImpl\BranchSStatsDAOImpl.java
D:\Logistics workspace\erp\src\main\java\com\mylogistics\services\CashStmtService.java
D:\Logistics workspace\erp\src\main\java\com\mylogistics\services\CnDetailService.java
D:\Logistics workspace\erp\src\main\java\com\mylogistics\services\StationaryRecService.java
D:\Logistics workspace\erp\src\main\java\com\mylogistics\constants\CustomerGroupCNTS.java
D:\Logistics workspace\erp\src\main\java\com\mylogistics\constants\CustomerRepresentativeCNTS.java
D:\Logistics workspace\erp\src\main\java\com\mylogistics\controller\RevVoucherCntlr.java
D:\Logistics workspace\erp\src\main\java\com\mylogistics\services\FundAllocationService.java
D:\Logistics workspace\erp\src\main\java\com\mylogistics\controller\BankDetBrkCntlr.java
D:\Logistics workspace\erp\src\main\java\com\mylogistics\constants\EmailReportCNTS.java
D:\Logistics workspace\erp\src\main\java\com\mylogistics\DAO\BrhWiseMunsDAO.java
D:\Logistics workspace\erp\src\main\java\com\mylogistics\constants\ContPersonCNTS.java
D:\Logistics workspace\erp\src\main\java\com\mylogistics\DAOImpl\OwnerDAOImpl.java
D:\Logistics workspace\erp\src\main\java\com\mylogistics\model\MultipleStation.java
D:\Logistics workspace\erp\src\main\java\com\mylogistics\DAOImpl\RegularContractDAOImpl.java
D:\Logistics workspace\erp\src\main\java\com\mylogistics\controller\webservices\ImageUpload.java
D:\Logistics workspace\erp\src\main\java\com\mylogistics\DAOImpl\FYearDAOImpl.java
D:\Logistics workspace\erp\src\main\java\com\mylogistics\DAOImpl\StationDAOImpl.java
D:\Logistics workspace\erp\src\main\java\com\mylogistics\services\OwnBrkKycBusinessDetails.java
D:\Logistics workspace\erp\src\main\java\com\mylogistics\constants\bank\ChequeLeavesCNTS.java
D:\Logistics workspace\erp\src\main\java\com\mylogistics\controller\LhpvSupCntlr.java
D:\Logistics workspace\erp\src\main\java\com\mylogistics\controller\SuperAdminCntlr.java
D:\Logistics workspace\erp\src\main\java\com\mylogistics\services\Cnmt_ChallanService.java
D:\Logistics workspace\erp\src\main\java\com\mylogistics\controller\CustomerCntlr.java
D:\Logistics workspace\erp\src\main\java\com\mylogistics\DAO\SubElectricityMstrDAO.java
D:\Logistics workspace\erp\src\main\java\com\mylogistics\DAO\MunsianaDAO.java
D:\Logistics workspace\erp\src\main\java\com\mylogistics\model\DailyContract.java
D:\Logistics workspace\erp\src\main\java\com\mylogistics\services\Writer.java
D:\Logistics workspace\erp\src\main\java\com\mylogistics\controller\IMGCntlr.java
D:\Logistics workspace\erp\src\main\java\com\mylogistics\DAO\LedgerDAO.java
D:\Logistics workspace\erp\src\main\java\com\mylogistics\controller\OtherChargeCntlr.java
D:\Logistics workspace\erp\src\main\java\com\mylogistics\DAO\ChallanDAO.java
D:\Logistics workspace\erp\src\main\java\com\mylogistics\mobileApi\controller\model\OwnerKYCPersonalDetails.java
D:\Logistics workspace\erp\src\main\java\com\mylogistics\constants\CashWithdrawCNTS.java
D:\Logistics workspace\erp\src\main\java\com\mylogistics\model\Acknowledge_Validation.java
D:\Logistics workspace\erp\src\main\java\com\mylogistics\controller\AllowAdvanceCntlr.java
D:\Logistics workspace\erp\src\main\java\com\mylogistics\model\webservice\ChallanApp.java
D:\Logistics workspace\erp\src\main\java\com\mylogistics\constants\DailyContractCNTS.java
D:\Logistics workspace\erp\src\main\java\com\mylogistics\model\bank\ChequeBook.java
D:\Logistics workspace\erp\src\main\java\com\mylogistics\controller\DisplayOwnerCntlr.java
D:\Logistics workspace\erp\src\main\java\com\mylogistics\model\FaTravDivision.java
D:\Logistics workspace\erp\src\main\java\com\mylogistics\DAO\BillDAO.java
D:\Logistics workspace\erp\src\main\java\com\mylogistics\DAOImpl\temp\BillTempDAOImpl.java
D:\Logistics workspace\erp\src\main\java\com\mylogistics\model\ArrivalReport.java
D:\Logistics workspace\erp\src\main\java\com\mylogistics\DAOImpl\PenaltyBonusDetentionDAOImpl.java
D:\Logistics workspace\erp\src\main\java\com\mylogistics\model\BranchMUStatsBk.java
D:\Logistics workspace\erp\src\main\java\com\mylogistics\controller\ChallanCntlr.java
D:\Logistics workspace\erp\src\main\java\com\mylogistics\controller\ViewVoucherCntlr.java
D:\Logistics workspace\erp\src\main\java\com\mylogistics\DAOImpl\bank\BankMstrDAOImpl.java
D:\Logistics workspace\erp\src\main\java\com\mylogistics\services\ValidatorFactoryUtil.java
D:\Logistics workspace\erp\src\main\java\com\mylogistics\DAO\ProductTypeDAO.java
D:\Logistics workspace\erp\src\main\java\com\mylogistics\DAOImpl\MunsianaDAOImpl.java
D:\Logistics workspace\erp\src\main\java\com\mylogistics\DAOImpl\StationRightsDAOImpl.java
D:\Logistics workspace\erp\src\main\java\com\mylogistics\DAO\CustomerRepresentativeDAO.java
D:\Logistics workspace\erp\src\main\java\com\mylogistics\constants\ProductTypeCNTS.java
D:\Logistics workspace\erp\src\main\java\com\mylogistics\controller\report\BrReconRptCntlr.java
D:\Logistics workspace\erp\src\main\java\com\mylogistics\model\dataintegration\ContToStnDemo.java
D:\Logistics workspace\erp\src\main\java\com\mylogistics\services\CashStmtStatusService.java
D:\Logistics workspace\erp\src\main\java\com\mylogistics\pdf\AbstractLhpvPdfView.java
D:\Logistics workspace\erp\src\main\java\com\mylogistics\controller\DisplayChallanCntlr.java
D:\Logistics workspace\erp\src\main\java\com\mylogistics\controller\PanCntlr.java
D:\Logistics workspace\erp\src\main\java\com\mylogistics\services\TitleValue.java
D:\Logistics workspace\erp\src\main\java\com\mylogistics\constants\ChallanDetailCNTS.java
D:\Logistics workspace\erp\src\main\java\com\mylogistics\controller\CnmtCntlr.java
D:\Logistics workspace\erp\src\main\java\com\mylogistics\model\RelianceCNStatus.java
D:\Logistics workspace\erp\src\main\java\com\mylogistics\controller\ServiceTaxCntlr.java
D:\Logistics workspace\erp\src\main\java\com\mylogistics\model\Branch.java
D:\Logistics workspace\erp\src\main\java\com\mylogistics\controller\AckValidatorCntlr.java
D:\Logistics workspace\erp\src\main\java\com\mylogistics\controller\CashRecieptCntlr.java
D:\Logistics workspace\erp\src\main\java\com\mylogistics\model\bank\BankName.java
D:\Logistics workspace\erp\src\main\java\com\mylogistics\constants\ChallanCNTS.java
D:\Logistics workspace\erp\src\main\java\com\mylogistics\controller\BillPrintCntlr.java
D:\Logistics workspace\erp\src\main\java\com\mylogistics\controller\IndentOwnerMasterCntlr.java
D:\Logistics workspace\erp\src\main\java\com\mylogistics\services\Chln_ChlnDetService.java
D:\Logistics workspace\erp\src\main\java\com\mylogistics\constants\BrokerImgCNTS.java
D:\Logistics workspace\erp\src\main\java\com\mylogistics\constants\Cnmt_ChallanCNTS.java
D:\Logistics workspace\erp\src\main\java\com\mylogistics\controller\webservices\LoadingCntlr.java
D:\Logistics workspace\erp\src\main\java\com\mylogistics\services\BTBFundTransService.java
D:\Logistics workspace\erp\src\main\java\com\mylogistics\constants\RemarksCNTS.java
D:\Logistics workspace\erp\src\main\java\com\mylogistics\controller\DisplayBranchCntlr.java
D:\Logistics workspace\erp\src\main\java\com\mylogistics\services\VM_SubVMService.java
D:\Logistics workspace\erp\src\main\java\com\mylogistics\controller\ChqCancelVoucherCntlr.java
D:\Logistics workspace\erp\src\main\java\com\mylogistics\DAOImpl\OwnerOldDAOImpl.java
D:\Logistics workspace\erp\src\main\java\com\mylogistics\controller\report\RelAnnextureRptCntlr.java
D:\Logistics workspace\erp\src\main\java\com\mylogistics\DAOImpl\bank\ChequeBookDAOImpl.java
D:\Logistics workspace\erp\src\main\java\com\mylogistics\DAOImpl\TermNConditionDAOImpl.java
D:\Logistics workspace\erp\src\main\java\com\mylogistics\constants\MemoCNTS.java
D:\Logistics workspace\erp\src\main\java\com\mylogistics\controller\BillFrwdPrintCntlr.java
D:\Logistics workspace\erp\src\main\java\com\mylogistics\controller\BrhWiseAssgnCntlr.java
D:\Logistics workspace\erp\src\main\java\com\mylogistics\DAO\SubTelephoneMstrDAO.java
D:\Logistics workspace\erp\src\main\java\com\mylogistics\controller\BankDetOwnCntlr.java
D:\Logistics workspace\erp\src\main\java\com\mylogistics\services\IBTService.java
D:\Logistics workspace\erp\src\main\java\com\mylogistics\controller\ContractRightsCntlr.java
D:\Logistics workspace\erp\src\main\java\com\mylogistics\DAOImpl\VehicleTypeDAOImpl.java
D:\Logistics workspace\erp\src\main\java\com\mylogistics\model\StationarySupplier.java
D:\Logistics workspace\erp\src\main\java\com\mylogistics\controller\AppCntlr.java
D:\Logistics workspace\erp\src\main\java\com\mylogistics\model\webservice\ChallanDTApp.java
D:\Logistics workspace\erp\src\main\java\com\mylogistics\services\SedrService.java
D:\Logistics workspace\erp\src\main\java\com\mylogistics\constants\BranchStockDisDetCNTS.java
D:\Logistics workspace\erp\src\main\java\com\mylogistics\controller\ArvRepAlwCntlr.java
D:\Logistics workspace\erp\src\main\java\com\mylogistics\constants\LhpvTempCNTS.java
D:\Logistics workspace\erp\src\main\java\com\mylogistics\controller\ReverseMRCntlr.java
D:\Logistics workspace\erp\src\main\java\com\mylogistics\controller\DlyRtAllowCntlr.java
D:\Logistics workspace\erp\src\main\java\com\mylogistics\DAO\PetroCardDAO.java
D:\Logistics workspace\erp\src\main\java\com\mylogistics\DAO\StationRightsDAO.java
D:\Logistics workspace\erp\src\main\java\com\mylogistics\services\bank\ChequeService.java
D:\Logistics workspace\erp\src\main\java\com\mylogistics\DAO\EmployeeDAO.java
D:\Logistics workspace\erp\src\main\java\com\mylogistics\model\webservice\VendorDetail.java
D:\Logistics workspace\erp\src\main\java\com\mylogistics\model\State.java
D:\Logistics workspace\erp\src\main\java\com\mylogistics\services\FillManager.java
D:\Logistics workspace\erp\src\main\java\com\mylogistics\DAO\DlyContAuthDAO.java
D:\Logistics workspace\erp\src\main\java\com\mylogistics\DAOImpl\CustomerRepresentativeDAOImpl.java
D:\Logistics workspace\erp\src\main\java\com\mylogistics\controller\webservices\OwnBrkWebService.java
D:\Logistics workspace\erp\src\main\java\com\mylogistics\DAOImpl\FaCarDivisionDAOImpl.java
D:\Logistics workspace\erp\src\main\java\com\mylogistics\DAOImpl\RentMstrDAOImpl.java
D:\Logistics workspace\erp\src\main\java\com\mylogistics\constants\Demo.java
D:\Logistics workspace\erp\src\main\java\com\mylogistics\services\TravDivService.java
D:\Logistics workspace\erp\src\main\java\com\mylogistics\constants\VehicleTypeCNTS.java
D:\Logistics workspace\erp\src\main\java\com\mylogistics\controller\BranchStockDispatchCntlr.java
D:\Logistics workspace\erp\src\main\java\com\mylogistics\DAO\RentMstrDAO.java
D:\Logistics workspace\erp\src\main\java\com\mylogistics\model\FAMaster.java
D:\Logistics workspace\erp\src\main\java\com\mylogistics\constants\FaCarDivisionCNTS.java
D:\Logistics workspace\erp\src\main\java\com\mylogistics\controller\ChangePasswordCntlr.java
D:\Logistics workspace\erp\src\main\java\com\mylogistics\model\BranchStockDispatch.java
D:\Logistics workspace\erp\src\main\java\com\mylogistics\DAO\AddressDAO.java
D:\Logistics workspace\erp\src\main\java\com\mylogistics\DAO\BranchStockLeafDetDAO.java
D:\Logistics workspace\erp\src\main\java\com\mylogistics\model\CashStmtStatus.java
D:\Logistics workspace\erp\src\main\java\com\mylogistics\services\BPVoucherServiceImpl.java
D:\Logistics workspace\erp\src\main\java\com\mylogistics\constants\CnmtCNTS.java
D:\Logistics workspace\erp\src\main\java\com\mylogistics\model\CustomerRights.java
D:\Logistics workspace\erp\src\main\java\com\mylogistics\controller\ViewContractCntlr.java
D:\Logistics workspace\erp\src\main\java\com\mylogistics\controller\LhpvTempCntlr.java
D:\Logistics workspace\erp\src\main\java\com\mylogistics\controller\bank\ChequeCntlr.java
D:\Logistics workspace\erp\src\main\java\com\mylogistics\constants\LhpvCashSmryCNTS.java
D:\Logistics workspace\erp\src\main\java\com\mylogistics\constants\TermNConditionCNTS.java
D:\Logistics workspace\erp\src\main\java\com\mylogistics\model\lhpv\LhpvCashSmry.java
D:\Logistics workspace\erp\src\main\java\com\mylogistics\constants\FaBPromCNTS.java
D:\Logistics workspace\erp\src\main\java\com\mylogistics\model\RegularContractOld.java
D:\Logistics workspace\erp\src\main\java\com\mylogistics\constants\bank\ChequeBookCNTS.java
D:\Logistics workspace\erp\src\main\java\com\mylogistics\controller\report\StockRptCntlr.java
D:\Logistics workspace\erp\src\main\java\com\mylogistics\DAOImpl\bank\AtmCardDAOImpl.java
D:\Logistics workspace\erp\src\main\java\com\mylogistics\constants\PhoneMstrCNTS.java
D:\Logistics workspace\erp\src\main\java\com\mylogistics\DAO\ContractRightsDAO.java
D:\Logistics workspace\erp\src\main\java\com\mylogistics\constants\StateCNTS.java
D:\Logistics workspace\erp\src\main\java\com\mylogistics\exception\custom\CashStmtStatusException.java
D:\Logistics workspace\erp\src\main\java\com\mylogistics\DAO\BranchStockDisDetDAO.java
D:\Logistics workspace\erp\src\main\java\com\mylogistics\model\Broker.java
D:\Logistics workspace\erp\src\main\java\com\mylogistics\controller\OwnerCntlr.java
D:\Logistics workspace\erp\src\main\java\com\mylogistics\DAO\BranchRightsDAO.java
D:\Logistics workspace\erp\src\main\java\com\mylogistics\constants\CashStmtStatusCNTS.java
D:\Logistics workspace\erp\src\main\java\com\mylogistics\DAOImpl\BranchMUStatsDAOImpl.java
D:\Logistics workspace\erp\src\main\java\com\mylogistics\DAOImpl\RemarksDAOImpl.java
D:\Logistics workspace\erp\src\main\java\com\mylogistics\controller\CashPaymentCntlr.java
D:\Logistics workspace\erp\src\main\java\com\mylogistics\DAOImpl\MasterStnStkDaoImpl.java
D:\Logistics workspace\erp\src\main\java\com\mylogistics\model\FaCarDivision.java
D:\Logistics workspace\erp\src\main\java\com\mylogistics\constants\CnmtAppCNTS.java
D:\Logistics workspace\erp\src\main\java\com\mylogistics\constants\ElectricityMstrCNTS.java
D:\Logistics workspace\erp\src\main\java\com\mylogistics\DAO\ContToStnDAO.java
D:\Logistics workspace\erp\src\main\java\com\mylogistics\constants\BranchRightsCNTS.java
D:\Logistics workspace\erp\src\main\java\com\mylogistics\constants\SubElectricityMstrCNTS.java
D:\Logistics workspace\erp\src\main\java\com\mylogistics\services\impl\CustomerServiceImpl.java
D:\Logistics workspace\erp\src\main\java\com\mylogistics\model\Address.java
D:\Logistics workspace\erp\src\main\java\com\mylogistics\constants\bank\AtmCardMstrCNTS.java
D:\Logistics workspace\erp\src\main\java\com\mylogistics\controller\BillSbmsnCntlr.java
D:\Logistics workspace\erp\src\main\java\com\mylogistics\constants\SupBillCNTS.java
D:\Logistics workspace\erp\src\main\java\com\mylogistics\services\MultipleStateService.java
D:\Logistics workspace\erp\src\main\java\com\mylogistics\controller\DlyContAuthCntlr.java
D:\Logistics workspace\erp\src\main\java\com\mylogistics\DAOImpl\AssestsNLiabDAOImpl.java
D:\Logistics workspace\erp\src\main\java\com\mylogistics\DAO\IBTVoucherDAO.java
D:\Logistics workspace\erp\src\main\java\com\mylogistics\services\StnTransferService.java
D:\Logistics workspace\erp\src\main\java\com\mylogistics\controller\MrPrintCntlr.java
D:\Logistics workspace\erp\src\main\java\com\mylogistics\DAO\bank\PanDAO.java
D:\Logistics workspace\erp\src\main\java\com\mylogistics\model\bank\Branch_Atm.java
D:\Logistics workspace\erp\src\main\java\com\mylogistics\services\HBO_NotificationService.java
D:\Logistics workspace\erp\src\main\java\com\mylogistics\DAOImpl\MultipleStationDAOImpl.java
D:\Logistics workspace\erp\src\main\java\com\mylogistics\DAOImpl\MultipleStateDAOImpl.java
D:\Logistics workspace\erp\src\main\java\com\mylogistics\model\bank\BankMstr.java
D:\Logistics workspace\erp\src\main\java\com\mylogistics\DAO\MiscFaDAO.java
D:\Logistics workspace\erp\src\main\java\com\mylogistics\model\HBOptr_Notification.java
D:\Logistics workspace\erp\src\main\java\com\mylogistics\DAO\BranchMUStatsDAO.java
D:\Logistics workspace\erp\src\main\java\com\mylogistics\constants\BillDetailCNTS.java
D:\Logistics workspace\erp\src\main\java\com\mylogistics\model\CashStmt1516.java
D:\Logistics workspace\erp\src\main\java\com\mylogistics\model\FundAllocationDetails.java
D:\Logistics workspace\erp\src\main\java\com\mylogistics\services\ModelService.java
D:\Logistics workspace\erp\src\main\java\com\mylogistics\services\VMstrService.java
D:\Logistics workspace\erp\src\main\java\com\mylogistics\model\dataintegration\AssestsNLiabDemo.java
D:\Logistics workspace\erp\src\main\java\com\mylogistics\controller\AtmVoucherCntlr.java
D:\Logistics workspace\erp\src\main\java\com\mylogistics\DAOImpl\BranchStockLeafDetDAOImpl.java
D:\Logistics workspace\erp\src\main\java\com\mylogistics\model\CnmtImage.java
D:\Logistics workspace\erp\src\main\java\com\mylogistics\DAOImpl\SubVehicleMstrDAOImpl.java
D:\Logistics workspace\erp\src\main\java\com\mylogistics\constants\BillFormateNameCNTS.java
D:\Logistics workspace\erp\src\main\java\com\mylogistics\controller\MrrPrintCntlr.java
D:\Logistics workspace\erp\src\main\java\com\mylogistics\mobileApi\controller\model\OwnerKYCBankAccountDetails.java
D:\Logistics workspace\erp\src\main\java\com\mylogistics\constants\SubTelephoneMstrCNTS.java
D:\Logistics workspace\erp\src\main\java\com\mylogistics\DAO\JVoucherDAO.java
D:\Logistics workspace\erp\src\main\java\com\mylogistics\DAOImpl\ProductTypeDAOImpl.java
D:\Logistics workspace\erp\src\main\java\com\mylogistics\model\BranchOld.java
D:\Logistics workspace\erp\src\main\java\com\mylogistics\DAOImpl\OwnerMasterDAOImpl.java
D:\Logistics workspace\erp\src\main\java\com\mylogistics\model\CustomerOld.java
D:\Logistics workspace\erp\src\main\java\com\mylogistics\DAO\BranchStockDispatchDAO.java
D:\Logistics workspace\erp\src\main\java\com\mylogistics\DAOImpl\BillDAOImpl.java
D:\Logistics workspace\erp\src\main\java\com\mylogistics\services\StnOdrInvService.java
D:\Logistics workspace\erp\src\main\java\com\mylogistics\model\VehicleEngagement.java
D:\Logistics workspace\erp\src\main\java\com\mylogistics\DAO\FaCarDivisionDAO.java
D:\Logistics workspace\erp\src\main\java\com\mylogistics\DAOImpl\ChallanDetailDAOImpl.java
D:\Logistics workspace\erp\src\main\java\com\mylogistics\DAOImpl\ProfitNLossDAOImpl.java
D:\Logistics workspace\erp\src\main\java\com\mylogistics\controller\TravVoucherCntlr.java
D:\Logistics workspace\erp\src\main\java\com\mylogistics\DAOImpl\webservice\LoadingDaoImpl.java
D:\Logistics workspace\erp\src\main\java\com\mylogistics\DAOImpl\webservice\OwnBrkDaoImpl.java
D:\Logistics workspace\erp\src\main\java\com\mylogistics\DAO\TelephoneMstrDAO.java
D:\Logistics workspace\erp\src\main\java\com\mylogistics\DAO\FundAllocationDao.java
D:\Logistics workspace\erp\src\main\java\com\mylogistics\DAO\werservice\OwnBrkDao.java
D:\Logistics workspace\erp\src\main\java\com\mylogistics\controller\TelephoneVoucherCntlr.java
D:\Logistics workspace\erp\src\main\java\com\mylogistics\model\OwnerOld.java
D:\Logistics workspace\erp\src\main\java\com\mylogistics\DAOImpl\JVoucherDAOImpl.java
D:\Logistics workspace\erp\src\main\java\com\mylogistics\DAO\MultipleStateDAO.java
D:\Logistics workspace\erp\src\main\java\com\mylogistics\constants\BrokerCNTS.java
D:\Logistics workspace\erp\src\main\java\com\mylogistics\controller\DispatchDetailsCntlr.java
D:\Logistics workspace\erp\src\main\java\com\mylogistics\DAOImpl\ChqPayVoucherDAOImpl.java
D:\Logistics workspace\erp\src\main\java\com\mylogistics\controller\RentVoucherCntlr.java
D:\Logistics workspace\erp\src\main\java\com\mylogistics\controller\dataintegration\DataIntegrationCntlr.java
D:\Logistics workspace\erp\src\main\java\com\mylogistics\model\RelBillAddress.java
D:\Logistics workspace\erp\src\main\java\com\mylogistics\DAO\MoneyReceiptDAO.java
D:\Logistics workspace\erp\src\main\java\com\mylogistics\DAO\MultipleStationDAO.java
D:\Logistics workspace\erp\src\main\java\com\mylogistics\model\AllStation.java
D:\Logistics workspace\erp\src\main\java\com\mylogistics\controller\DisplayDailyContractCntlr.java
D:\Logistics workspace\erp\src\main\java\com\mylogistics\DAOImpl\BillForwardingDAOImpl.java
D:\Logistics workspace\erp\src\main\java\com\mylogistics\DAOImpl\VehicleVendorDAOImpl.java
D:\Logistics workspace\erp\src\main\java\com\mylogistics\controller\UserRightsCntlr.java
D:\Logistics workspace\erp\src\main\java\com\mylogistics\constants\ContractRightsCNTS.java
D:\Logistics workspace\erp\src\main\java\com\mylogistics\DAO\ElectricityMstrDAO.java
D:\Logistics workspace\erp\src\main\java\com\mylogistics\services\ReconRptService.java
D:\Logistics workspace\erp\src\main\java\com\mylogistics\controller\LhpvStartTempCntlr.java
D:\Logistics workspace\erp\src\main\java\com\mylogistics\services\EmailThread.java
D:\Logistics workspace\erp\src\main\java\com\mylogistics\model\DlyContAuth.java
D:\Logistics workspace\erp\src\main\java\com\mylogistics\constants\BranchSStatsCNTS.java
D:\Logistics workspace\erp\src\main\java\com\mylogistics\model\TempIntBrTv.java
D:\Logistics workspace\erp\src\main\java\com\mylogistics\DAOImpl\IndentOwnerMasterDAOImpl.java
D:\Logistics workspace\erp\src\main\java\com\mylogistics\model\AdaniGST.java
D:\Logistics workspace\erp\src\main\java\com\mylogistics\DAO\werservice\WebServiceDAO.java
D:\Logistics workspace\erp\src\main\java\com\mylogistics\controller\ArrivalReportCntlr.java
D:\Logistics workspace\erp\src\main\java\com\mylogistics\services\TelM_SubTelMService.java
D:\Logistics workspace\erp\src\main\java\com\mylogistics\model\HOSStats.java
D:\Logistics workspace\erp\src\main\java\com\mylogistics\DAO\Acknowledge_ValidationDao.java
D:\Logistics workspace\erp\src\main\java\com\mylogistics\services\VoucherService.java
D:\Logistics workspace\erp\src\main\java\com\mylogistics\services\CustomerService.java
D:\Logistics workspace\erp\src\main\java\com\mylogistics\services\PBDServiceImpl.java
D:\Logistics workspace\erp\src\main\java\com\mylogistics\controller\SuperAdmin_DashboardCntlr.java
D:\Logistics workspace\erp\src\main\java\com\mylogistics\controller\WharehouseCntlr.java
D:\Logistics workspace\erp\src\main\java\com\mylogistics\constants\TempIntBrTvCNTS.java
D:\Logistics workspace\erp\src\main\java\com\mylogistics\DAO\VehicleTypeDAO.java
D:\Logistics workspace\erp\src\main\java\com\mylogistics\controller\PayDetMRCntlr.java
D:\Logistics workspace\erp\src\main\java\com\mylogistics\exception\custom\BankMstrException.java
D:\Logistics workspace\erp\src\main\java\com\mylogistics\services\CodePatternService.java
D:\Logistics workspace\erp\src\main\java\com\mylogistics\constants\OwnerImgCNTS.java
D:\Logistics workspace\erp\src\main\java\com\mylogistics\controller\bank\BankStmtDataCntlr.java
D:\Logistics workspace\erp\src\main\java\com\mylogistics\constants\BranchCNTS.java
D:\Logistics workspace\erp\src\main\java\com\mylogistics\DAO\ContPersonDAO.java
D:\Logistics workspace\erp\src\main\java\com\mylogistics\controller\EmployeeCntlr.java
D:\Logistics workspace\erp\src\main\java\com\mylogistics\controller\BillCntlr.java
D:\Logistics workspace\erp\src\main\java\com\mylogistics\model\StationaryStock.java
D:\Logistics workspace\erp\src\main\java\com\mylogistics\services\MultipleLists.java
D:\Logistics workspace\erp\src\main\java\com\mylogistics\DAO\StateDAO.java
D:\Logistics workspace\erp\src\main\java\com\mylogistics\DAOImpl\StationaryDAOImpl.java
D:\Logistics workspace\erp\src\main\java\com\mylogistics\DAO\report\ReportDAO.java
D:\Logistics workspace\erp\src\main\java\com\mylogistics\controller\DisplayRegularContractCntlr.java
D:\Logistics workspace\erp\src\main\java\com\mylogistics\DAO\BrokerOldDAO.java
D:\Logistics workspace\erp\src\main\java\com\mylogistics\DAOImpl\CashStmtStatusDAOImpl.java
D:\Logistics workspace\erp\src\main\java\com\mylogistics\model\webservice\ImageApp.java
D:\Logistics workspace\erp\src\main\java\com\mylogistics\model\webservice\CnmtApp.java
D:\Logistics workspace\erp\src\main\java\com\mylogistics\controller\DisplayCnmtCntlr.java
D:\Logistics workspace\erp\src\main\java\com\mylogistics\DAOImpl\RelBillAddressDAOImpl.java
D:\Logistics workspace\erp\src\main\java\com\mylogistics\controller\LhpvAdvTempCntlr.java
D:\Logistics workspace\erp\src\main\java\com\mylogistics\controller\ViewCnmtCntlr.java
D:\Logistics workspace\erp\src\main\java\com\mylogistics\model\Optr_Notification.java
D:\Logistics workspace\erp\src\main\java\com\mylogistics\DAOImpl\UserRightsDAOImpl.java
D:\Logistics workspace\erp\src\main\java\com\mylogistics\model\SubTelephoneMstr.java
D:\Logistics workspace\erp\src\main\java\com\mylogistics\controller\ProductTypeCntlr.java
D:\Logistics workspace\erp\src\main\java\com\mylogistics\controller\HoldDocsCntlr.java
D:\Logistics workspace\erp\src\main\java\com\mylogistics\controller\ViewBrokerCntlr.java
D:\Logistics workspace\erp\src\main\java\com\mylogistics\DAO\ChallanDetailDAO.java
D:\Logistics workspace\erp\src\main\java\com\mylogistics\controller\VehicleTypeCntlr.java
D:\Logistics workspace\erp\src\main\java\com\mylogistics\model\EMailReport.java
D:\Logistics workspace\erp\src\main\java\com\mylogistics\mobileApi\controller\model\OwnerPersonalKYCDetailByOwner.java
D:\Logistics workspace\erp\src\main\java\com\mylogistics\services\OtherChgServiceImpl.java
D:\Logistics workspace\erp\src\main\java\com\mylogistics\controller\DisplayArrivalReportCntlr.java
D:\Logistics workspace\erp\src\main\java\com\mylogistics\pdf\LhpvPDFBuilder.java
D:\Logistics workspace\erp\src\main\java\com\mylogistics\constants\FAMasterCNTS.java
D:\Logistics workspace\erp\src\main\java\com\mylogistics\services\InterBrTvService.java
D:\Logistics workspace\erp\src\main\java\com\mylogistics\model\BillDetail.java
D:\Logistics workspace\erp\src\main\java\com\mylogistics\model\BrokerImg.java
D:\Logistics workspace\erp\src\main\java\com\mylogistics\services\temp\BillTempService.java
D:\Logistics workspace\erp\src\main\java\com\mylogistics\DAO\werservice\ChallanWebServiceDao.java
D:\Logistics workspace\erp\src\main\java\com\mylogistics\model\webservice\VehicleApp.java
D:\Logistics workspace\erp\src\main\java\com\mylogistics\DAOImpl\ContPersonDAOImpl.java
D:\Logistics workspace\erp\src\main\java\com\mylogistics\model\HOSLast.java
D:\Logistics workspace\erp\src\main\java\com\mylogistics\DAOImpl\bank\PanDAOImpl.java
D:\Logistics workspace\erp\src\main\java\com\mylogistics\DAOImpl\LedgerDAOImpl.java
D:\Logistics workspace\erp\src\main\java\com\mylogistics\model\CustomerGroup.java
D:\Logistics workspace\erp\src\main\java\com\mylogistics\services\RentService.java
D:\Logistics workspace\erp\src\main\java\com\mylogistics\services\RBKMService.java
D:\Logistics workspace\erp\src\main\java\com\mylogistics\mobileApi\controller\model\VehicleDataFrmAPI.java
D:\Logistics workspace\erp\src\main\java\com\mylogistics\controller\report\RelianceStockController.java
D:\Logistics workspace\erp\src\main\java\com\mylogistics\constants\VehicleMstrCNTS.java
D:\Logistics workspace\erp\src\main\java\com\mylogistics\DAO\CustomerRightsDAO.java
D:\Logistics workspace\erp\src\main\java\com\mylogistics\model\User.java
D:\Logistics workspace\erp\src\main\java\com\mylogistics\DAOImpl\BranchStockDispatchDAOImpl.java
D:\Logistics workspace\erp\src\main\java\com\mylogistics\DAO\StationDAO.java
D:\Logistics workspace\erp\src\main\java\com\mylogistics\DAOImpl\BranchStockDisDetDAOImpl.java
D:\Logistics workspace\erp\src\main\java\com\mylogistics\constants\LhpvStatusCNTS.java
D:\Logistics workspace\erp\src\main\java\com\mylogistics\services\VehVoucherServiceImpl.java
D:\Logistics workspace\erp\src\main\java\com\mylogistics\controller\StationCntlr.java
